{
  "project_info": {
    "project_number": "548618809396",
    "firebase_url": "https://sultana.firebaseio.com",
    "project_id": "sultana",
    "storage_bucket": "sultana.appspot.com"
  },
  "client": [
    {
      "client_info": {
        "mobilesdk_app_id": "1:548618809396:android:32753f132d97a254",
        "android_client_info": {
          "package_name": "flow.digital.respondentpolice"
        }
      },
      "oauth_client": [
        {
          "client_id": "548618809396-rievlv9qn3a4n2aacvhv2d5v9qurjira.apps.googleusercontent.com",
          "client_type": 3
        }
      ],
      "api_key": [
        {
          "current_key": "AIzaSyB8U9nRdZeHCZPyT3feRpPeiCJBcdMQh-o"
        }
      ],
      "services": {
        "appinvite_service": {
          "other_platform_oauth_client": [
            {
              "client_id": "548618809396-rievlv9qn3a4n2aacvhv2d5v9qurjira.apps.googleusercontent.com",
              "client_type": 3
            }
          ]
        }
      }
    }
  ],
  "configuration_version": "1"
}